{
  "id": null,
  "title": "Ping Monitoring",
  "originalTitle": "Ping Monitoring",
  "tags": [],
  "style": "dark",
  "timezone": "browser",
  "editable": true,
  "hideControls": false,
  "sharedCrosshair": false,
  "rows": [
    {
      "title": "test",
      "height": "250px",
      "editable": true,
      "collapse": false,
      "panels": [
        {
          "id": 4,
          "span": 12,
          "type": "graph",
          "x-axis": true,
          "y-axis": true,
          "scale": 1,
          "y_formats": [
            "short",
            "short"
          ],
          "grid": {
            "max": null,
            "min": null,
            "leftMax": null,
            "rightMax": null,
            "leftMin": null,
            "rightMin": null,
            "threshold1": null,
            "threshold2": null,
            "threshold1Color": "rgba(216, 200, 27, 0.27)",
            "threshold2Color": "rgba(234, 112, 112, 0.22)"
          },
          "resolution": 100,
          "lines": true,
          "fill": 1,
          "linewidth": 2,
          "points": false,
          "pointradius": 5,
          "bars": false,
          "stack": false,
          "spyable": true,
          "options": false,
          "legend": {
            "show": true,
            "values": false,
            "min": false,
            "max": false,
            "current": false,
            "total": false,
            "avg": false
          },
          "interactive": true,
          "legend_counts": true,
          "timezone": "browser",
          "percentage": false,
          "nullPointMode": "connected",
          "steppedLine": false,
          "tooltip": {
            "value_type": "cumulative",
            "query_as_alias": true,
            "shared": false
          },
          "targets": [
            {
              "target": "randomWalk('random walk')",
              "function": "distinct",
              "column": "latency",
              "series": "ping_monitoring",
              "query": "select target_to, distinct(latency) from \"ping_monitoring\" where $timeFilter group by time($interval), target_to order asc",
              "groupby_field": "target_to"
            }
          ],
          "aliasColors": {},
          "aliasYAxis": {},
          "title": "Latency (ms)",
          "datasource": "graphite",
          "renderer": "flot",
          "annotate": {
            "enable": false
          },
          "seriesOverrides": [],
          "links": []
        }
      ]
    },
    {
      "title": "New row",
      "height": "250px",
      "editable": true,
      "collapse": false,
      "panels": [
        {
          "title": "Availability",
          "error": false,
          "span": 12,
          "editable": true,
          "type": "graph",
          "id": 5,
          "datasource": null,
          "renderer": "flot",
          "x-axis": true,
          "y-axis": true,
          "y_formats": [
            "short",
            "short"
          ],
          "grid": {
            "leftMax": null,
            "rightMax": null,
            "leftMin": null,
            "rightMin": null,
            "threshold1": null,
            "threshold2": null,
            "threshold1Color": "rgba(216, 200, 27, 0.27)",
            "threshold2Color": "rgba(234, 112, 112, 0.22)"
          },
          "lines": true,
          "fill": 0,
          "linewidth": 1,
          "points": false,
          "pointradius": 5,
          "bars": false,
          "stack": false,
          "percentage": false,
          "legend": {
            "show": true,
            "values": false,
            "min": false,
            "max": false,
            "current": false,
            "total": false,
            "avg": false
          },
          "nullPointMode": "connected",
          "steppedLine": false,
          "tooltip": {
            "value_type": "cumulative",
            "shared": false
          },
          "targets": [
            {
              "function": "mean",
              "column": "up",
              "series": "ping_monitoring",
              "query": "select mean(up) from \"ping_monitoring\" where $timeFilter group by time($interval) order asc"
            }
          ],
          "aliasColors": {},
          "seriesOverrides": [],
          "links": []
        }
      ]
    }
  ],
  "nav": [
    {
      "type": "timepicker",
      "collapse": false,
      "enable": true,
      "status": "Stable",
      "time_options": [
        "5m",
        "15m",
        "1h",
        "6h",
        "12h",
        "24h",
        "2d",
        "7d",
        "30d"
      ],
      "refresh_intervals": [
        "5s",
        "10s",
        "30s",
        "1m",
        "5m",
        "15m",
        "30m",
        "1h",
        "2h",
        "1d"
      ],
      "now": false,
      "notice": false
    }
  ],
  "time": {
    "from": "2014-12-10T16:22:51.917Z",
    "to": "2014-12-11T16:22:51.923Z"
  },
  "templating": {
    "list": []
  },
  "annotations": {
    "list": []
  },
  "refresh": false,
  "version": 6,
  "hideAllLegends": false
}